[
  {
    "id": 0,
    "title": "01简单建议",
    "sections": [
      {
        "id": 0,
        "title": "01.1 简单建议1-长时间备考.mp4",
        "src": {
          "mp4": "http://vstat.daydayupinc.com/wenyong-reading/01简单建议/01.1简单建议1-长时间备考.mp4",
          "duration": 318.417,
          "width": 480,
          "height": 0
        }
      },
      {
        "id": 1,
        "title": "01.2. 简单建议2-训练真题.mp4",
        "src": {
          "mp4": "http://vstat.daydayupinc.com/wenyong-reading/01简单建议/01.2.简单建议2-训练真题.mp4",
          "duration": 503.25,
          "width": 480,
          "height": 0
        }
      },
      {
        "id": 2,
        "title": "01.3.1 简单建议3-制作错题本.mp4",
        "src": {
          "mp4": "http://vstat.daydayupinc.com/wenyong-reading/01简单建议/01.3.1简单建议3-制作错题本.mp4",
          "duration": 976.75,
          "width": 480,
          "height": 0
        }
      },
      {
        "id": 3,
        "title": "01.3.2（可选）（给GRE,GMAT和SAT的学生看）简单建议3：做错题目.mp4",
        "src": {
          "mp4": "http://vstat.daydayupinc.com/wenyong-reading/01简单建议/01.3.2（可选）（给GRE,GMAT和SAT的学生看）简单建议3：做错题目.mp4",
          "duration": 376.167,
          "width": 480,
          "height": 0
        }
      },
      {
        "id": 4,
        "title": "01.4. 简单建议4.mp4",
        "src": {
          "mp4": "http://vstat.daydayupinc.com/wenyong-reading/01简单建议/01.4.简单建议4.mp4",
          "duration": 613.75,
          "width": 480,
          "height": 0
        }
      },
      {
        "id": 5,
        "title": "01.5. 听说读写的四个科目的四个基本点.mp4",
        "src": {
          "mp4": "http://vstat.daydayupinc.com/wenyong-reading/01简单建议/01.5.听说读写的四个科目的四个基本点.mp4",
          "duration": 793.25,
          "width": 480,
          "height": 0
        }
      }
    ]
  },
  
  {
    "id": 1,
    "title": "02托福阅读简介",
    "sections": [
      {
        "id": 0,
        "title": "02.1托福阅读简介-关于考试的时间与加试.mp4",
        "src": {
          "mp4": "http://vstat.daydayupinc.com/wenyong-reading/02托福阅读简介/02.1托福阅读简介-关于考试的时间与加试.mp4",
          "duration": 460.667,
          "width": 480,
          "height": 0
        }
      },
      {
        "id": 1,
        "title": "02.2托福阅读简介-关于记笔记的两种基本方式.mp4",
        "src": {
          "mp4": "http://vstat.daydayupinc.com/wenyong-reading/02托福阅读简介/02.2托福阅读简介-关于记笔记的两种基本方式.mp4",
          "duration": 807.25,
          "width": 480,
          "height": 0
        }
      },
      {
        "id": 2,
        "title": "02.3托福阅读简介-题型与错题归类.mp4",
        "src": {
          "mp4": "http://vstat.daydayupinc.com/wenyong-reading/02托福阅读简介/02.3托福阅读简介-题型与错题归类.mp4",
          "duration": 426.75,
          "width": 480,
          "height": 0
        }
      }
    ]
  },
  {
    "id": 2,
    "title": "03词汇题",
    "sections": [
      {
        "id": 0,
        "title": "03.01对待词汇题的基本态度-特定语境下的替换.mp4",
        "src": {
          "mp4": "http://vstat.daydayupinc.com/wenyong-reading/03词汇题/03.01对待词汇题的基本态度-特定语境下的替换.mp4",
          "duration": 523.25,
          "width": 480,
          "height": 0
        }
      },
      {
        "id": 1,
        "title": "03.02词汇题的常用语境：举例.mp4",
        "src": {
          "mp4": "http://vstat.daydayupinc.com/wenyong-reading/03词汇题/03.02词汇题的常用语境：举例.mp4",
          "duration": 859.167,
          "width": 480,
          "height": 0
        }
      },
      {
        "id": 2,
        "title": "03.03词汇题-段落结构下的语境-举例.mp4",
        "src": {
          "mp4": "http://vstat.daydayupinc.com/wenyong-reading/03词汇题/03.03词汇题-段落结构下的语境-举例.mp4",
          "duration": 313.75,
          "width": 480,
          "height": 0
        }
      },
      {
        "id": 3,
        "title": "03.04词汇题-并列语境.mp4",
        "src": {
          "mp4": "http://vstat.daydayupinc.com/wenyong-reading/03词汇题/03.04词汇题-并列语境.mp4",
          "duration": 322.25,
          "width": 480,
          "height": 0
        }
      },
      {
        "id": 4,
        "title": "03.05词汇题的转折语境.mp4",
        "src": {
          "mp4": "http://vstat.daydayupinc.com/wenyong-reading/03词汇题/03.05词汇题的转折语境.mp4",
          "duration": 705.75,
          "width": 480,
          "height": 0
        }
      }
    ]
  },
  {
    "id": 3,
    "title": "04指代题",
    "sections": [
      {
        "id": 0,
        "title": "04.01指代题的基本思路：词意对应.mp4",
        "src": {
          "mp4": "http://vstat.daydayupinc.com/wenyong-reading/04指代题/04.01指代题的基本思路：词意对应.mp4",
          "duration": 796.25,
          "width": 480,
          "height": 0
        }
      },
      {
        "id": 1,
        "title": "04.02指代题中词意对应的练习题.mp4",
        "src": {
          "mp4": "http://vstat.daydayupinc.com/wenyong-reading/04指代题/04.02指代题中词意对应的练习题.mp4",
          "duration": 240.75,
          "width": 480,
          "height": 0
        }
      },
      {
        "id": 2,
        "title": "04.03指代题中的几个诡计（1）后半句代词主语指代前半句名词主语.mp4",
        "src": {
          "mp4": "http://vstat.daydayupinc.com/wenyong-reading/04指代题/04.03指代题中的几个诡计（1）后半句代词主语指代前半句名词主语.mp4",
          "duration": 411.75,
          "width": 480,
          "height": 0
        }
      },
      {
        "id": 3,
        "title": "04.04指代题中的几个诡计（2）所有格代词最有可能指代前文最接近的名词.mp4",
        "src": {
          "mp4": "http://vstat.daydayupinc.com/wenyong-reading/04指代题/04.04指代题中的几个诡计（2）所有格代词最有可能指代前文最接近的名词.mp4",
          "duration": 429.25,
          "width": 480,
          "height": 0
        }
      },
      {
        "id": 4,
        "title": "04.05指代题中的几个诡计（3）some...others...的组合.mp4",
        "src": {
          "mp4": "http://vstat.daydayupinc.com/wenyong-reading/04指代题/04.05指代题中的几个诡计（3）some...others...的组合.mp4",
          "duration": 347.25,
          "width": 480,
          "height": 0
        }
      },
      {
        "id": 5,
        "title": "04.06指代题的两个终极问题.mp4",
        "src": {
          "mp4": "http://vstat.daydayupinc.com/wenyong-reading/04指代题/04.06指代题的两个终极问题.mp4",
          "duration": 548.25,
          "width": 480,
          "height": 0
        }
      }
    ]
  },
  {
    "id": 4,
    "title": "05核对类题型",
    "sections": [
      {
        "id": 0,
        "title": "05.01细节题与except题：核对中的考点分层.mp4",
        "src": {
          "mp4": "http://vstat.daydayupinc.com/wenyong-reading/05核对类题型/05.01细节题与except题：核对中的考点分层.mp4",
          "duration": 1099.75,
          "width": 480,
          "height": 0
        }
      },
      {
        "id": 1,
        "title": "05.02.01核对类题型的“题干”难点.mp4",
        "src": {
          "mp4": "http://vstat.daydayupinc.com/wenyong-reading/05核对类题型/05.02.01核对类题型的“题干”难点.mp4",
          "duration": 803.25,
          "width": 480,
          "height": 0
        }
      },
      {
        "id": 2,
        "title": "05.02.02核对类题型的提干难点（练习篇）.mp4",
        "src": {
          "mp4": "http://vstat.daydayupinc.com/wenyong-reading/05核对类题型/05.02.02核对类题型的提干难点（练习篇）.mp4",
          "duration": 507.25,
          "width": 480,
          "height": 0
        }
      },
      {
        "id": 3,
        "title": "05.03核对类题型的定位能力.mp4",
        "src": {
          "mp4": "http://vstat.daydayupinc.com/wenyong-reading/05核对类题型/05.03核对类题型的定位能力.mp4",
          "duration": 626.25,
          "width": 480,
          "height": 0
        }
      },
      {
        "id": 4,
        "title": "05.04核对类题型的诡计1-利用脚标定位（总结ETS对待生词的三种态度）.mp4",
        "src": {
          "mp4": "http://vstat.daydayupinc.com/wenyong-reading/05核对类题型/05.04核对类题型的诡计1-利用脚标定位（总结ETS对待生词的三种态度）.mp4",
          "duration": 891.25,
          "width": 480,
          "height": 0
        }
      },
      {
        "id": 5,
        "title": "05.05核对类题型的诡计2-except题型中的取非作答.mp4",
        "src": {
          "mp4": "http://vstat.daydayupinc.com/wenyong-reading/05核对类题型/05.05核对类题型的诡计2-except题型中的取非作答.mp4",
          "duration": 410.084,
          "width": 480,
          "height": 0
        }
      }
    ]
  },
  {
    "id": 5,
    "title": "06推理题",
    "sections": [
      {
        "id": 0,
        "title": "06.01并列、递进与转折的基本概念.mp4",
        "src": {
          "mp4": "http://vstat.daydayupinc.com/wenyong-reading/06推理题/06.01并列、递进与转折的基本概念.mp4",
          "duration": 576.75,
          "width": 480,
          "height": 0
        }
      },
      {
        "id": 1,
        "title": "06.02推理题的基本知识对应：并列、递进与转折（举例转折）.mp4",
        "src": {
          "mp4": "http://vstat.daydayupinc.com/wenyong-reading/06推理题/06.02推理题的基本知识对应：并列、递进与转折（举例转折）.mp4",
          "duration": 631.75,
          "width": 480,
          "height": 0
        }
      },
      {
        "id": 2,
        "title": "06.03转折中基于地点的暗转折.mp4",
        "src": {
          "mp4": "http://vstat.daydayupinc.com/wenyong-reading/06推理题/06.03转折中基于地点的暗转折.mp4",
          "duration": 529.75,
          "width": 480,
          "height": 0
        }
      },
      {
        "id": 3,
        "title": "06.04转折中基于时间的暗转折.mp4",
        "src": {
          "mp4": "http://vstat.daydayupinc.com/wenyong-reading/06推理题/06.04转折中基于时间的暗转折.mp4",
          "duration": 694.75,
          "width": 480,
          "height": 0
        }
      },
      {
        "id": 4,
        "title": "06.05暗转折的总结.mp4",
        "src": {
          "mp4": "http://vstat.daydayupinc.com/wenyong-reading/06推理题/06.05暗转折的总结.mp4",
          "duration": 0.093,
          "width": 480,
          "height": 0
        }
      },
      {
        "id": 5,
        "title": "06.06暗转折点总结与衍生.mp4",
        "src": {
          "mp4": "http://vstat.daydayupinc.com/wenyong-reading/06推理题/06.06暗转折点总结与衍生.mp4",
          "duration": 544.25,
          "width": 480,
          "height": 0
        }
      }
    ]
  },
  {
    "id": 6,
    "title": "07修辞目的题",
    "sections": [
      {
        "id": 0,
        "title": "07.01修辞目的题的基本思路.mp4",
        "src": {
          "mp4": "http://vstat.daydayupinc.com/wenyong-reading/07修辞目的题/07.01修辞目的题的基本思路.mp4",
          "duration": 1319.75,
          "width": 480,
          "height": 0
        }
      },
      {
        "id": 1,
        "title": "07.02修辞目的题的诡计及其对写作的启示（链接）.mp4",
        "src": {
          "mp4": "http://vstat.daydayupinc.com/wenyong-reading/07修辞目的题/07.02修辞目的题的诡计及其对写作的启示（链接）.mp4",
          "duration": 248.75,
          "width": 480,
          "height": 0
        }
      }
    ]
  },
  {
    "id": 7,
    "title": "08句子简化题",
    "sections": [
      {
        "id": 0,
        "title": "08.01句子简化题的审题：“几种典型的错误”与“思路的甄选”.mp4",
        "src": {
          "mp4": "http://vstat.daydayupinc.com/wenyong-reading/08句子简化题/08.01句子简化题的审题：“几种典型的错误”与“思路的甄选”.mp4",
          "duration": 557.25,
          "width": 480,
          "height": 0
        }
      },
      {
        "id": 1,
        "title": "08.02句子简化题的基本思路：逻辑的解法.mp4",
        "src": {
          "mp4": "http://vstat.daydayupinc.com/wenyong-reading/08句子简化题/08.02句子简化题的基本思路：逻辑的解法.mp4",
          "duration": 868.5,
          "width": 480,
          "height": 0
        }
      },
      {
        "id": 2,
        "title": "08.03句子简化题的逻辑解法：两个或更多逻辑的情况.mp4",
        "src": {
          "mp4": "http://vstat.daydayupinc.com/wenyong-reading/08句子简化题/08.03句子简化题的逻辑解法：两个或更多逻辑的情况.mp4",
          "duration": 636.667,
          "width": 480,
          "height": 0
        }
      },
      {
        "id": 3,
        "title": "08.04句子简化题的逻辑解法：弱逻辑的情况.mp4",
        "src": {
          "mp4": "http://vstat.daydayupinc.com/wenyong-reading/08句子简化题/08.04句子简化题的逻辑解法：弱逻辑的情况.mp4",
          "duration": 721.75,
          "width": 480,
          "height": 0
        }
      },
      {
        "id": 4,
        "title": "08.05逻辑解法的终极困境及解决.mp4",
        "src": {
          "mp4": "http://vstat.daydayupinc.com/wenyong-reading/08句子简化题/08.05逻辑解法的终极困境及解决.mp4",
          "duration": 959.25,
          "width": 480,
          "height": 0
        }
      },
      {
        "id": 5,
        "title": "08.06句子间话题与句子插入题：同一个知识点的不同角度.mp4",
        "src": {
          "mp4": "http://vstat.daydayupinc.com/wenyong-reading/08句子简化题/08.06句子间话题与句子插入题：同一个知识点的不同角度.mp4",
          "duration": 467.75,
          "width": 480,
          "height": 0
        }
      },
      {
        "id": 6,
        "title": "08.07句子简化题的衍生应用：写作中的句子改写.mp4",
        "src": {
          "mp4": "http://vstat.daydayupinc.com/wenyong-reading/08句子简化题/08.07句子简化题的衍生应用：写作中的句子改写.mp4",
          "duration": 451.25,
          "width": 480,
          "height": 0
        }
      }
    ]
  },
  {
    "id": 8,
    "title": "09句子插入题",
    "sections": [
      {
        "id": 0,
        "title": "09.01句子插入题的基本思路：启示与红线.mp4",
        "src": {
          "mp4": "http://vstat.daydayupinc.com/wenyong-reading/09句子插入题/09.01句子插入题的基本思路：启示与红线.mp4",
          "duration": 887.75,
          "width": 480,
          "height": 0
        }
      },
      {
        "id": 1,
        "title": "09.02句子插入题的考点（1）代词引发的粘连关系.mp4",
        "src": {
          "mp4": "http://vstat.daydayupinc.com/wenyong-reading/09句子插入题/09.02句子插入题的考点（1）代词引发的粘连关系.mp4",
          "duration": 951.75,
          "width": 480,
          "height": 0
        }
      },
      {
        "id": 2,
        "title": "09.03句子插入题的考点（2）转折与递进引发的粘连.mp4",
        "src": {
          "mp4": "http://vstat.daydayupinc.com/wenyong-reading/09句子插入题/09.03句子插入题的考点（2）转折与递进引发的粘连.mp4",
          "duration": 828.75,
          "width": 480,
          "height": 0
        }
      },
      {
        "id": 3,
        "title": "09.04句子插入题的考点（3）因果与总分引发的粘连.mp4",
        "src": {
          "mp4": "http://vstat.daydayupinc.com/wenyong-reading/09句子插入题/09.04句子插入题的考点（3）因果与总分引发的粘连.mp4",
          "duration": 907.25,
          "width": 480,
          "height": 0
        }
      },
      {
        "id": 4,
        "title": "09.05句子插入题的衍生：句间关系与阅读能力（什么样的阅读是好阅读）.mp4",
        "src": {
          "mp4": "http://vstat.daydayupinc.com/wenyong-reading/09句子插入题/09.05句子插入题的衍生：句间关系与阅读能力（什么样的阅读是好阅读）.mp4",
          "duration": 1189.75,
          "width": 480,
          "height": 0
        }
      }
    ]
  },
  {
    "id": 9,
    "title": "10文章内容小结题",
    "sections": [
      {
        "id": 0,
        "title": "10.01文章内容小结题的解题条件一：给定黑体字.mp4",
        "src": {
          "mp4": "http://vstat.daydayupinc.com/wenyong-reading/10文章内容小结题/10.01文章内容小结题的解题条件一：给定黑体字.mp4",
          "duration": 1126.75,
          "width": 480,
          "height": 0
        }
      },
      {
        "id": 1,
        "title": "10.02文章内容小结题的条件1：给定黑体字（练习部分）.mp4",
        "src": {
          "mp4": "http://vstat.daydayupinc.com/wenyong-reading/10文章内容小结题/10.02文章内容小结题的条件1：给定黑体字（练习部分）.mp4",
          "duration": 380.25,
          "width": 480,
          "height": 0
        }
      },
      {
        "id": 2,
        "title": "10.03文章内容小结题的基本条件（2）：选定主干段.mp4",
        "src": {
          "mp4": "http://vstat.daydayupinc.com/wenyong-reading/10文章内容小结题/10.03文章内容小结题的基本条件（2）：选定主干段.mp4",
          "duration": 313.25,
          "width": 480,
          "height": 0
        }
      },
      {
        "id": 3,
        "title": "10.04文章内容小结题的条件三：错项及细节项不选.mp4",
        "src": {
          "mp4": "http://vstat.daydayupinc.com/wenyong-reading/10文章内容小结题/10.04文章内容小结题的条件三：错项及细节项不选.mp4",
          "duration": 563.25,
          "width": 480,
          "height": 0
        }
      },
      {
        "id": 4,
        "title": "10.05表格题的基础知识：文章内容小结题的“缩小”运用.mp4",
        "src": {
          "mp4": "http://vstat.daydayupinc.com/wenyong-reading/10文章内容小结题/10.05表格题的基础知识：文章内容小结题的“缩小”运用.mp4",
          "duration": 247.25,
          "width": 480,
          "height": 0
        }
      }
    ]
  }
]